<?xml version="1.0" standalone="no"?>
<!DOCTYPE svg PUBLIC "-//W3C//DTD SVG 1.1//EN" "http://www.w3.org/Graphics/SVG/1.1/DTD/svg11.dtd" >
<svg xmlns="http://www.w3.org/2000/svg">
<metadata>
Created by FontForge 20120731 at Tue Apr 11 18:49:10 2017
 By admin
</metadata>
<defs>
<font id="iconfont" horiz-adv-x="1024" >
  <font-face 
    font-family="iconfont"
    font-weight="500"
    font-stretch="normal"
    units-per-em="1024"
    panose-1="2 0 6 3 0 0 0 0 0 0"
    ascent="896"
    descent="-128"
    x-height="792"
    bbox="-0.333334 -128 1144 896"
    underline-thickness="0"
    underline-position="0"
    unicode-range="U+0078-E523"
  />
<missing-glyph 
 />
    <glyph glyph-name=".notdef" 
 />
    <glyph glyph-name=".notdef" 
 />
    <glyph glyph-name=".null" horiz-adv-x="0" 
 />
    <glyph glyph-name="nonmarkingreturn" horiz-adv-x="341" 
 />
    <glyph glyph-name="x" unicode="x" horiz-adv-x="1001" 
d="M281 543q-27 -1 -53 -1h-83q-18 0 -36.5 -6t-32.5 -18.5t-23 -32t-9 -45.5v-76h912v41q0 16 -0.5 30t-0.5 18q0 13 -5 29t-17 29.5t-31.5 22.5t-49.5 9h-133v-97h-438v97zM955 310v-52q0 -23 0.5 -52t0.5 -58t-10.5 -47.5t-26 -30t-33 -16t-31.5 -4.5q-14 -1 -29.5 -0.5
t-29.5 0.5h-32l-45 128h-439l-44 -128h-29h-34q-20 0 -45 1q-25 0 -41 9.5t-25.5 23t-13.5 29.5t-4 30v167h911zM163 247q-12 0 -21 -8.5t-9 -21.5t9 -21.5t21 -8.5q13 0 22 8.5t9 21.5t-9 21.5t-22 8.5zM316 123q-8 -26 -14 -48q-5 -19 -10.5 -37t-7.5 -25t-3 -15t1 -14.5
t9.5 -10.5t21.5 -4h37h67h81h80h64h36q23 0 34 12t2 38q-5 13 -9.5 30.5t-9.5 34.5q-5 19 -11 39h-368zM336 498v228q0 11 2.5 23t10 21.5t20.5 15.5t34 6h188q31 0 51.5 -14.5t20.5 -52.5v-227h-327z" />
    <glyph glyph-name="bianji" unicode="&#xe516;" 
d="M805 -128h-663v0q-45 0 -77.5 32t-32.5 78v733q0 46 32.5 78t77.5 32v0h516h1q15 0 26 -11t11 -26t-11 -25.5t-26 -10.5h-1h-516v0q-15 0 -25.5 -11t-10.5 -26v-733q0 -15 10.5 -26t25.5 -11v0h663v0q15 0 26 11t11 26v586q1 15 11.5 25.5t25.5 10.5t25.5 -10.5
t11.5 -25.5v-586q0 -46 -32.5 -78t-78.5 -32v0zM589 458v0q-15 0 -26 11t-11 26t11 26l366 364q11 11 26 11t26 -10.5t11 -26t-11 -26.5l-366 -364q-11 -11 -26 -11v0zM437 458h-221h-1q-15 0 -26 11t-11 26t11 26t26 11h1h221h1q15 0 26 -11t11 -26t-11 -26t-26 -11h-1z
M658 239h-442h-1q-15 0 -26 10.5t-11 25.5t11 26t26 11h1h442h1q15 0 26 -11t11 -26t-11 -25.5t-26 -10.5h-1v0z" />
    <glyph glyph-name="duihuanxuzhi" unicode="&#xe517;" 
d="M549 -128v0q-10 0 -17 7t-7 16q0 10 7 17l361 341v538q0 24 -17.5 41.5t-42.5 17.5h-1h-640h-1q-25 0 -42.5 -17.5t-17.5 -41.5v-794q0 -25 17.5 -42t42.5 -17h1h207q10 0 16.5 -7t6.5 -16.5t-6.5 -16t-16.5 -6.5h-207h-2q-43 0 -74.5 30.5t-32.5 74.5v794q1 43 32.5 74
t74.5 31h2h640h2q43 0 74.5 -31t32.5 -74v-547q0 -10 -7 -17l-368 -348q-7 -7 -17 -7v0zM750 592h-483q-9 0 -15.5 6.5t-6.5 16t6.5 16.5t15.5 7h483q10 0 16.5 -7t6.5 -16.5t-6.5 -16t-16.5 -6.5v0zM750 413h-483v0q-9 0 -15.5 7t-6.5 16.5t6.5 16t15.5 6.5v0h483v0
q10 0 16.5 -6.5t6.5 -16t-6.5 -16.5t-16.5 -7v0v0zM544 -128v0q-10 0 -16.5 6.5t-7.5 16.5v291q1 36 26.5 61t61.5 25h1h304q10 0 16.5 -7t6.5 -16.5t-6.5 -16.5t-16.5 -7h-304h-1q-16 0 -28 -11.5t-12 -27.5v-291q0 -10 -7 -16.5t-16 -6.5h-1v0z" />
    <glyph glyph-name="keyongjifen" unicode="&#xe518;" 
d="M512 384zM0 384q0 -139 68.5 -257t186.5 -186.5t257 -68.5t257 68.5t186.5 186.5t68.5 257t-68.5 257t-186.5 186.5t-257 68.5t-257 -68.5t-186.5 -186.5t-68.5 -257zM274 535zM512 377q-72 0 -131 20t-87 52q-19 -20 -20 -48q0 -50 69.5 -85.5t168.5 -35.5t168.5 35.5
t69.5 85.5q-1 28 -20 48q-28 -32 -87 -52t-131 -20zM512 240q-73 0 -132.5 20.5t-86.5 53.5q-18 -20 -19 -47q0 -50 69.5 -85.5t168.5 -35.5t168.5 35.5t69.5 85.5q-1 27 -19 47q-27 -33 -86.5 -53.5t-132.5 -20.5v0zM512 610q91 0 155.5 -26t64.5 -63t-64.5 -63t-155.5 -26
t-155.5 26t-64.5 63t64.5 63t155.5 26z" />
    <glyph glyph-name="jifen" unicode="&#xe519;" horiz-adv-x="1144" 
d="M572 398q161 0 292 32.5t205.5 89.5t74.5 127t-74.5 127t-205.5 89.5t-292 32.5t-292 -32.5t-205.5 -89.5t-74.5 -127t74.5 -127t205.5 -89.5t292 -32.5zM572 833q109 0 206 -16.5t162.5 -43.5t104 -60t38.5 -66t-38.5 -66t-104 -60t-162.5 -43.5t-206 -16.5t-206 16.5
t-162.5 43.5t-103.5 60t-38 66t38 66t103.5 60t162.5 43.5t206 16.5zM572 134q161 0 291.5 32.5t205 89t74.5 126.5q-1 25 -15.5 55.5t-33.5 47.5h-1v1q-8 8 -19 8q-12 0 -20 -8.5t-8 -20.5t9 -21q11 -10 19.5 -28.5t9.5 -33.5q0 -33 -38 -66.5t-103.5 -60.5t-163 -44
t-207 -17t-207 17t-163 44t-104 60.5t-38.5 66.5v2q0 15 9 33t22 28v1h1q7 8 7 19q0 12 -8 20.5t-20 8.5v0q-11 0 -20 -9q-19 -17 -33.5 -47t-15.5 -56q0 -70 74.5 -126.5t205 -89t291.5 -32.5h-1zM1094 223l-1 1q-8 7 -19 7t-19.5 -8.5t-8.5 -19.5q0 -13 9 -21
q11 -11 20 -29t10 -33q0 -34 -38.5 -67.5t-104 -60t-163 -43.5t-206.5 -17t-206.5 17t-163.5 43.5t-104 60t-38 67.5v1q0 16 8.5 34t21.5 27l1 1v0q8 9 8 20q0 12 -8.5 20t-20 8t-19.5 -8q-20 -17 -34.5 -47.5t-15.5 -56.5q0 -69 74.5 -126t205 -89t291 -32t291.5 32
t205.5 89t74.5 126q-2 26 -16 56t-33 47l-1 1v0z" />
    <glyph glyph-name="morendizhi" unicode="&#xe51a;" 
d="M512 896q-139 0 -257 -68.5t-186.5 -186.5t-68.5 -257t68.5 -257t186.5 -186.5t257 -68.5t257 68.5t186.5 186.5t68.5 257t-68.5 257t-186.5 186.5t-257 68.5zM833 552l-382 -382q-9 -9 -22.5 -9t-22.5 9l-215 215q-9 10 -9 23t9 22.5t22.5 9.5t22.5 -9l193 -193l359 360
q9 9 22.5 9t23 -9.5t9.5 -22.5t-10 -23v0z" />
    <glyph glyph-name="shanchu" unicode="&#xe51b;" 
d="M920 694h-816q-11 3 -18.5 14t-7.5 22v2v0q0 11 7.5 19t18.5 8h816q11 0 18.5 -8t7.5 -19v0v-2q0 -11 -7.5 -22t-18.5 -14zM657 831h-290q-11 0 -18.5 8t-7.5 18v1v2q0 11 7.5 21.5t18.5 14.5h290q11 -4 18.5 -14.5t7.5 -21.5v-2v-1q0 -10 -7.5 -18t-18.5 -8zM410 65v465
q0 10 15.5 18.5t27.5 8.5q11 0 19 -8t8 -19v0v-465v0q0 -11 -8 -19t-19 -8q-12 0 -27.5 8.5t-15.5 18.5zM542 65v465v0q0 11 8 19t19 8q12 0 27.5 -8.5t15.5 -18.5v-465q0 -10 -15.5 -18.5t-27.5 -8.5q-11 0 -19 8t-8 19v0zM170 584h1q12 0 23.5 -8t15.5 -19v-559v-1
q0 -22 15.5 -37.5t37.5 -15.5h473q24 0 50.5 16.5t26.5 37.5v559v0q0 11 8 19t19 8h1q12 0 23 -8t15 -19v-601q0 -32 -40.5 -58t-76.5 -26h-500q-36 0 -77.5 26t-41.5 58v601v0q0 11 8 19t19 8zM170 584z" />
    <glyph glyph-name="wodedizhi" unicode="&#xe51c;" 
d="M512 837v0q104 0 206.5 -67.5t143.5 -162.5q12 -30 21 -73t9 -75q0 -43 -16 -100.5t-39 -94.5q-3 -5 -5 -11l-2 -2q-3 -4 -6 -7q-16 -23 -161 -170q-70 -71 -141 -142v0q-6 0 -11 -1q-73 71 -145 142q-149 148 -166 171q-3 4 -6 7l-2 2q-2 6 -5 12q-23 37 -38.5 94
t-15.5 100q0 103 50.5 190t137.5 137.5t190 50.5h1zM512 297q67 1 114 48.5t47 113.5q0 68 -47.5 115.5t-114.5 47.5t-114.5 -47.5t-47.5 -115.5q0 -67 48 -114.5t115 -47.5v0zM512 896h-1q-89 0 -170 -34.5t-139.5 -93t-93.5 -139.5t-35 -170v0q0 -50 18.5 -116t44.5 -109
q3 -12 13 -21l2 -2q29 -41 322 -325q15 -14 35 -14v0q7 0 14 2h2.5h1.5v0q20 0 34 14q48 47 172 173t140 149l4 4q8 8 12 20q26 43 44.5 109t18.5 116v0q0 89 -35 170t-93.5 139.5t-139.5 93t-170 34.5h-1zM512 356q-43 0 -73 30.5t-30 72.5q0 43 30.5 73.5t73.5 30.5
t73 -30.5t30 -73t-30.5 -73t-73.5 -30.5v0v0z" />
    <glyph glyph-name="wodeduihuan" unicode="&#xe51d;" 
d="M744 265h-1q-9 0 -16 -7t-7 -16q0 -54 -23 -67h-99h-2q-6 0 -11 2v137h83h2q20 0 35 14.5t15 34.5v110q0 20 -15 34.5t-35 14.5h-2h-48l53 77q4 6 4 12q0 13 -11 20q-7 4 -14 4q-13 0 -20 -11l-70 -102h-78l-111 112q-7 7 -17 7t-17 -6q-8 -7 -8 -17q0 -9 7 -16l79 -80
h-61h-2q-20 0 -35 -14.5t-15 -34.5v-110q0 -20 15 -34.5t35 -14.5h2h42q-9 -45 -45.5 -86t-79.5 -54q-8 -2 -13 -8.5t-5 -14.5q0 -3 1 -6q3 -7 9.5 -12t13.5 -5h1q4 0 7 1q57 18 104.5 72t56.5 113h88v-136v-3q0 -16 10 -28q20 -18 47 -18h5h103h4q4 1 9.5 3t15.5 9.5
t18 18.5t14.5 32.5t6.5 49.5q-1 9 -8 16t-16 7h-1v0zM356 360v0q-3 0 -4 3v110q1 3 4 3v0h214q2 -1 5 -1t6 1h87v0q3 0 3 -3v-110q0 -3 -3 -3v0h-312v0zM512 896q-139 0 -257 -68.5t-186.5 -186.5t-68.5 -257t68.5 -257t186.5 -186.5t257 -68.5t257 68.5t186.5 186.5
t68.5 257q0 104 -40.5 198.5t-109.5 163.5t-163.5 109.5t-198.5 40.5zM512 -75v0q-93 0 -178 36.5t-146.5 98t-98 146.5t-36.5 178t36.5 178t98 146.5t146.5 98t178 36.5t178 -36.5t146.5 -98t98 -146.5t36.5 -178t-36.5 -178t-98 -146.5t-146.5 -98t-178 -36.5z" />
    <glyph glyph-name="xiaofeijilu" unicode="&#xe51e;" 
d="M183 530h494v37h-494v-37zM183 201h118v2q0 18 3 35h-121v-37zM823 677v-190q19 -4 36 -9v201v2q0 59 -41.5 101t-100.5 42h-1l-39 -1v-37h36q42 -3 74.5 -35t35.5 -74v0zM351 402h-168v-36h152q5 19 16 36v0zM567 896h-274v-37h274v37v0zM165 -55q-51 3 -88.5 40.5
t-39.5 87.5v604q3 42 35 74t74 35h37v37l-40 1v0q-59 0 -101 -42t-42 -101v-2v-602v0q0 -69 49 -118.5t118 -49.5h189q-13 16 -22 36h-169zM421 841v-36h-110v-37h238v37h-92v36h-36v0zM366 293q0 -58 93 -93t236 -35t236 35t93 93q0 59 -95 102.5t-234 43.5t-234 -43.5
t-95 -102.5v0zM987 293q0 -38 -82.5 -65t-209.5 -27t-210 27t-83 65q0 18 22 37.5t59.5 35.5t93.5 26t118 10t118 -10t93.5 -26t59 -35.5t21.5 -37.5zM995 66v0l-1 1q-4 4 -10 4h-1q-6 0 -11 -4.5t-5 -11.5t6 -12q15 -18 15 -43v0q0 -38 -83 -64.5t-210 -26.5t-210 26.5
t-83 64.5v5q0 22 16 39h1v0q4 5 4 11q0 7 -4.5 11.5t-11.5 4.5v0q-7 0 -11 -5q-13 -9 -21.5 -27t-8.5 -34v-5q0 -58 93 -93t236 -35q94 0 169 15.5t118 45t42 67.5q-1 51 -29 66v0zM987 220l7 -8q-4 4 -11 4v0q-6 0 -11 -4.5t-5 -11.5t6 -11q15 -19 15 -42q0 -38 -83 -65
t-210 -27t-210 27t-83 65v4q0 22 16 38v1h1q4 4 4 11q0 6 -4.5 10.5t-11.5 4.5v0v0q-7 0 -12 -4q-12 -9 -20.5 -26t-8.5 -32v-8q0 -57 93.5 -92.5t236 -35.5t235.5 35.5t93 92.5q0 19 -10.5 40.5t-26.5 32.5v1zM995 212z" />
    <glyph glyph-name="xinzengjifen" unicode="&#xe51f;" 
d="M512 384zM0 384q0 -139 68.5 -257t186.5 -186.5t257 -68.5t257 68.5t186.5 186.5t68.5 257t-68.5 257t-186.5 186.5t-257 68.5t-257 -68.5t-186.5 -186.5t-68.5 -257zM274 535zM512 377q-72 0 -131 20t-87 52q-19 -20 -20 -48q0 -50 69.5 -85.5t168.5 -35.5t168.5 35.5
t69.5 85.5q-1 28 -20 48q-28 -32 -87 -52t-131 -20zM512 240q-73 0 -132.5 20.5t-86.5 53.5q-18 -20 -19 -47q0 -50 69.5 -85.5t168.5 -35.5t168.5 35.5t69.5 85.5q-1 27 -19 47q-27 -33 -86.5 -53.5t-132.5 -20.5v0zM512 610q91 0 155.5 -26t64.5 -63t-64.5 -63t-155.5 -26
t-155.5 26t-64.5 63t64.5 63t155.5 26z" />
    <glyph glyph-name="xingxing" unicode="&#xe520;" horiz-adv-x="1073" 
d="M568 16q-15 7 -31.5 7t-31.5 -7l-259 -136q-25 -14 -40 -3.5t-10 39.5l55 324l-235 229q-21 20 -15 37.5t35 21.5l324 47l145 295q13 26 31 26t31 -26l145 -295l325 -47q29 -4 34.5 -21.5t-15.5 -37.5l-235 -229l56 -324q5 -29 -10 -39.5t-40 3.5z" />
    <glyph glyph-name="xinzengjilu" unicode="&#xe521;" 
d="M210 555h461v34h-461v-34zM210 248h110v2q0 16 4 32h-114v-34zM807 691v-177q18 -3 34 -7v187v2q0 55 -39 94t-94 39v0l-37 -1v-34h34q39 -3 69 -33t33 -70v0zM367 436h-157v-35h142q5 19 15 35v0zM568 896h-255v-34h255v34v0zM193 9q-47 2 -82 37t-37 83v562q3 40 33 70
t69 33h34v34l-37 1v0q-55 0 -94 -39t-39 -94v-2v-562v0q0 -64 45.5 -110t110.5 -47h176q-13 16 -21 34h-158zM432 845v-34h-102v-34h221v34h-85v34h-34v0zM544 180h292v-27h-292v27zM676 312h27v-291h-27v291z" />
    <glyph glyph-name="zu" unicode="&#xe522;" 
d="M512 384zM0 384q0 -139 68.5 -257t186.5 -186.5t257 -68.5t257 68.5t186.5 186.5t68.5 257t-68.5 257t-186.5 186.5t-257 68.5t-257 -68.5t-186.5 -186.5t-68.5 -257zM512 384zM228 384q0 -118 83 -201t201 -83t201 83t83 201t-83 201t-201 83t-201 -83t-83 -201z" />
    <glyph glyph-name="kuaidigenzong" unicode="&#xe523;" 
d="M0 384q0 -139 68.5 -257t186.5 -186.5t257 -68.5t257 68.5t186.5 186.5t68.5 257t-68.5 257t-186.5 186.5t-257 68.5t-257 -68.5t-186.5 -186.5t-68.5 -257zM228 384q0 -118 83 -201t201 -83t201 83t83 201t-83 201t-201 83t-201 -83t-83 -201z" />
  </font>
</defs></svg>
